Preclearance Is Not Just For Flights
…
  scale_x_discrete(name = "Month submitted") +
  scale_y_continuous(labels = scales::percent) +
  theme(strip.text.x = element_text(size = 6.5, angle = 0),
        axis.text.x = element_blank(),
        axis.ticks.x = element_blank(),
        axis.title.y = element_blank(),
        strip.background = element_blank(),
        panel.spacing = unit(0, "pt")) +
  scale_fill_discrete(name = "",
                      breaks = c("1", "2", "3", "4", "5", "6", "7", "8"),
                      labels = c("redistricting plan", "election procedures", "voting method", "polling place", "precinct", "annexation", "voter registration", "other"),
                      guide = guide_legend(reverse=TRUE)) +
  labs(title = "Preclearance Submissions for the Voting Rights Act of 1965, Section 5")

## # A tibble: 183 x 5
## # Groups:   date [23]
##    date   code     n xwidth month  
##    <chr> <dbl> <dbl>  <dbl> <fct>  
##  1 10 09     1    24    457 Sep '10
##  2 10 09     2   168    457 Sep '10
##  3 10 09     3    92    457 Sep '10
##  4 10 09     4    77    457 Sep '10
##  5 10 09     5    17    457 Sep '10
##  6 10 09     6    44    457 Sep '10
##  7 10 09     7     5    457 Sep '10
##  8 10 09     8    30    457 Sep '10
##  9 10 10     1    23    831 Oct '10
## 10 10 10     2   273    831 Oct '10
## #  with 173 more rows
…
## # A tibble: 1,616 x 6
## # Groups:   date, code [183]
##    date   code state              n xwidth month  
##    <chr> <dbl> <fct>          <dbl>  <dbl> <fct>  
##  1 10 09     1 Louisiana          4      1 Sep '10
##  2 10 09     1 Texas             20      1 Sep '10
##  3 10 09     2 Alabama            4      1 Sep '10
##  4 10 09     2 Arizona           23      1 Sep '10
##  5 10 09     2 Georgia           11      1 Sep '10
##  6 10 09     2 Louisiana         24      1 Sep '10
##  7 10 09     2 South Carolina     4      1 Sep '10
##  8 10 09     2 Texas             86      1 Sep '10
##  9 10 09     2 California         1      1 Sep '10
## 10 10 09     2 Mississippi        4      1 Sep '10
## #  with 1,606 more rows
…
